…
Tokenize
========

    verified_bigram_ct <- unnest_tokens(verified_reviews, bigram, review, token = "ngrams", n = 2) %>%
      separate(bigram, c("word1", "word2"), sep = " ") %>%
      filter(!word1 %in% stop_words$word) %>%
      filter(!word2 %in% stop_words$word) %>%
      count(word1, word2, sort = TRUE)

    verified_bigram_ct

    ## # A tibble: 1,406 x 3
    ##    word1   word2      n
    ##    <chr>   <chr>  <int>
    ##  1 smart   meter     70
    ##  2 wifi    router    15
    ##  3 wifi    signal    14
    ##  4 meter   cover     13
    ##  5 cell    phone     12
    ##  6 wi      fi        12
    ##  7 emf     meter     11
    ##  8 rf      meter     11
    ##  9 router  guard     11
    ## 10 faraday cage      10
    ## # ... with 1,396 more rows

Bigram Analysis
===============

    unverified_bigram_ct <- unnest_tokens(unverified_reviews, bigram, review, token = "ngrams", n = 2) %>%
      separate(bigram, c("word1", "word2"), sep = " ") %>%
      filter(!word1 %in% stop_words$word) %>%
      filter(!word2 %in% stop_words$word) %>%
      count(word1, word2, sort = TRUE)

    unverified_bigram_ct

    ## # A tibble: 800 x 3
    ##    word1   word2                n
    ##    <chr>   <chr>            <int>
    ##  1 smart   meter               26
    ##  2 smart   meters              14
    ##  3 wifi    router              13
    ##  4 cell    phone               12
    ##  5 faraday cage                 8
    ##  6 signal  strength             7
    ##  7 wi      fi                   7
    ##  8 emf     radiation            4
    ##  9 https   smile.amazon.com     4
    ## 10 meter   cover                4
    ## # ... with 790 more rows
…
